fsmtb.vcd
$date
	Sat May 20 23:35:26 2023
$end
$version
	Icarus Verilog
$end
$timescale
	1s
$end
$scope module fsmtb $end
$var wire 1 ! unlocked $end
$var wire 1 " secvled $end
$var wire 1 # reset $end
$var wire 3 $ ostatetb [2:0] $end
$var wire 1 % locked $end
$var wire 3 & fftb [2:0] $end
$var reg 1 ' clk $end
$var reg 1 ( enbltb $end
$var reg 1 ) obuttb $end
$var reg 1 * secitb $end
$var reg 1 + zbuttb $end
$var integer 32 , testno [31:0] $end
$scope module fsm $end
$var wire 1 ' CLK $end
$var wire 1 ( ENBL $end
$var wire 1 % LOCK $end
$var wire 1 ) OBUT $end
$var wire 1 # RSTO $end
$var wire 1 * SECI $end
$var wire 1 " SECV $end
$var wire 1 ! ULCK $end
$var wire 1 + ZBUT $end
$var wire 3 - offin [2:0] $end
$var wire 3 . state [2:0] $end
$var wire 3 / ostate [2:0] $end
$var wire 3 0 ffin [2:0] $end
$var wire 16 1 chunk [15:0] $end
$scope module dff1 $end
$var wire 1 ' CLK $end
$var wire 1 2 D $end
$var reg 1 3 Q $end
$upscope $end
$scope module dff2 $end
$var wire 1 ' CLK $end
$var wire 1 4 D $end
$var reg 1 5 Q $end
$upscope $end
$scope module dff3 $end
$var wire 1 ' CLK $end
$var wire 1 6 D $end
$var reg 1 7 Q $end
$upscope $end
$upscope $end
$upscope $end
$enddefinitions $end
$comment Show the parameter values. $end
$dumpall
$end
#0
$dumpvars
07
06
05
04
03
02
bz00000000000 1
b0 0
b0 /
b0 .
b0 -
b0 ,
0+
0*
1)
1(
0'
b0 &
1%
b0 $
0#
0"
0!
$end
#1
1'
#2
16
12
b101 &
b101 -
b101 0
bz00001000001 1
1+
0)
0'
#3
02
b100 &
b100 -
b100 0
bz00001000000 1
1#
b101 $
b101 /
17
b101 .
13
1'
#4
0'
#5
14
b110 &
b110 -
b110 0
bz01001110000 1
0#
b100 $
b100 /
b100 .
03
1'
#6
0'
#7
bz00001110000 1
b110 $
b110 /
b110 .
15
1'
#8
04
b100 &
b100 -
b100 0
bz00000100000 1
1)
b1 ,
0+
0'
#9
bz01000100000 1
b100 $
b100 /
b100 .
05
1'
#10
14
b110 &
b110 -
b110 0
bz01001110000 1
1+
0)
0'
#11
bz00001110000 1
b110 $
b110 /
b110 .
15
1'
#12
0'
#13
1'
#14
0'
#15
1'
#16
04
b100 &
b100 -
b100 0
bz00000100000 1
b10 ,
0+
0'
#18
1)
#19
bz01000100000 1
b100 $
b100 /
b100 .
05
1'
#20
0'
#21
14
b110 &
b110 -
b110 0
bz01001110000 1
1+
0)
#22
bz00001110000 1
b110 $
b110 /
b110 .
15
1'
#23
0'
#24
1'
#25
0'
#26
04
b100 &
b100 -
b100 0
bz00000100000 1
0+
1)
#27
bz01000100000 1
b100 $
b100 /
b100 .
05
b11 ,
0)
1'
#28
0'
#29
1)
